Nicholas Stevenson - Data Analysis Portfolio - eda3
…
Load the data.

# path to data
# note the use of the here() package and not absolute paths
NFL_data <- "C:/Users/nstev.000/Documents/MSDA/24Sum_DA 6833/Repositories/NicholasStevenson-P2-Portfolio/starter-analysis-exercise/data/raw-data/NFL_data.xlsx"

Check data

First we can look at our data

Stats <- readxl::read_excel(NFL_data, sheet ="Stats")
print(Stats)

# A tibble: 32 × 12
   Team       Wins Losses Win_Percentage Points_For Points_Against PLAYERSACTIVE
   <chr>     <dbl>  <dbl>          <dbl>      <dbl>          <dbl>         <dbl>
 1 Arizona …     4     13          0.235        330            455            53
 2 Atlanta …     7     10          0.529        321            373            54
 3 Baltimor…    13      4          0.765        483            280            53
 4 Buffalo …    11      6          0.647        451            311            53
 5 Carolina…     2     15          0.118        236            416            53
 6 Chicago …     7     10          0.412        360            379            52
 7 Cincinna…     9      8          0.529        366            384            53
 8 Clevelan…    11      6          0.647        396            362            53
 9 Dallas C…    12      5          0.706        509            315            53
10 Denver B…     8      9          0.471        357            413            53
# ℹ 22 more rows
# ℹ 5 more variables: `AVG AGETEAM` <dbl>, TOTAL_CAPALLOCATIONS <dbl>,
#   `CAP SPACEALL` <dbl>, `ACTIVE53-MAN` <dbl>, DEADCAP <dbl>
…
[1] 9

#create images

Stats$image_file <- paste0("team_images/", Stats$Team, ".png")
summary(Stats$image_file)

   Length     Class      Mode 
       32 character character 

(Stats)

# A tibble: 32 × 13
   Team       Wins Losses Win_Percentage Points_For Points_Against PLAYERSACTIVE
   <chr>     <dbl>  <dbl>          <dbl>      <dbl>          <dbl>         <dbl>
 1 Arizona …     4     13          0.235        330            455            53
 2 Atlanta …     7     10          0.529        321            373            54
 3 Baltimor…    13      4          0.765        483            280            53
 4 Buffalo …    11      6          0.647        451            311            53
 5 Carolina…     2     15          0.118        236            416            53
 6 Chicago …     7     10          0.412        360            379            52
 7 Cincinna…     9      8          0.529        366            384            53
 8 Clevelan…    11      6          0.647        396            362            53
 9 Dallas C…    12      5          0.706        509            315            53
10 Denver B…     8      9          0.471        357            413            53
# ℹ 22 more rows
# ℹ 6 more variables: `AVG AGETEAM` <dbl>, TOTAL_CAPALLOCATIONS <dbl>,
#   `CAP SPACEALL` <dbl>, `ACTIVE53-MAN` <dbl>, DEADCAP <dbl>, image_file <chr>
…
