Nicholas Stevenson - Data Analysis Portfolio - R Coding Exercise
…
Upon further research into the new objects, we can surmise the reason for the ‘streaks’ in our plots is due to the grouping of country and year.

More data processing

Let’s pick only one year and see what patterns we find. We want a year for which we have the most data. You might have noticed that in africadata, there are 226 NA (i.e., missing values) for infant mortality. Write code that figures out which years have missing data for infant mortality. You should find that there is missing up to 1981 and then again for 2016. So we’ll avoid those years and go with 2000 instead. Create a new object by extracting only the data for the year 2000 from the africadata object. You should end up with 51 observations and 9 variables. Check it with str() and summary().

#Create new object to determine which years have missing data for infant mortality
missing_infant_mortality <- africadata %>% 
  filter(is.na(infant_mortality)) %>% 
  group_by(year) %>% 
  summarize(missing_count = n())

print(missing_infant_mortality)

# A tibble: 23 × 2
    year missing_count
   <int>         <int>
 1  1960            10
 2  1961            17
 3  1962            16
 4  1963            16
 5  1964            15
 6  1965            14
 7  1966            13
 8  1967            11
 9  1968            11
10  1969             7
# ℹ 13 more rows
…
